1 1 2.385412
1 2 2.322353
1 3 2.365059
1 4 2.336118
1 5 2.290000
1 6 2.315176
1 7 2.282824
1 8 2.325529
1 9 2.276471
2 1 2.308118
2 2 2.303529
2 3 2.292824
2 4 2.305412
2 5 2.310706
2 6 2.306706
2 7 2.267412
2 8 2.256588
2 9 2.314706
3 1 2.318588
3 2 2.295647
3 3 2.287059
3 4 2.304471
3 5 2.280706
3 6 2.284588
3 7 2.330235
3 8 2.327529
3 9 2.755294
4 1 2.284000
4 2 2.306706
4 3 2.332000
4 4 2.317647
4 5 2.310235
4 6 2.334471
4 7 2.420706
4 8 3.142824
4 9 17.241529
5 1 2.330941
5 2 2.277882
5 3 2.262471
5 4 2.344353
5 5 2.364471
5 6 2.469294
5 7 5.935059
5 8 41.792941
5 9 157.080128
6 1 2.311538
6 2 2.267308
6 3 2.275128
6 4 2.473462
6 5 2.888205
6 6 2.834487
6 7 5.520897
6 8 37.552308
6 9 329.688226
7 1 2.329677
7 2 2.279355
7 3 2.310806
7 4 2.706774
7 5 17.175161
7 6 32.419032
7 7 11.514355
7 8 89.478852
7 9 317.094118
8 1 2.323235
8 2 2.331471
8 3 2.309118
8 4 13.247941
8 5 215.916562
8 6 463.664333
8 7 166.134643
8 8 27.727407
8 9 781.540769
9 1 1.857692
9 2 1.920769
9 3 2.207692
9 4 75.067273
9 5 644.346000
9 6 196.050000
